{
    "name": "Presentation",
    "references": [
        "AppService",
        "Infrastructure",
        "DataValues",
        "Support",
        "ThirdPartyRuntime",
        "Unity.TextMeshPro"
    ],
    "includePlatforms": [],
    "excludePlatforms": [],
    "allowUnsafeCode": false,
    "overrideReferences": false,
    "precompiledReferences": [
        ""
    ],
    "autoReferenced": true,
    "defineConstraints": [],
    "versionDefines": [],
    "noEngineReferences": false
}